{
"label":"Nintendo - GB",
"icon":"gambatte.png",
"iconsel":"",
"launch":"launch.sh",
"rompath":"../../Roms/GB",
"imgpath":"../../Roms/GB/Imgs",
"useswap":0,
"shortname":0,
"hidebios":0,
"extlist":"gb|gbc|zip"
}