{
"label":"Arcade - MAME 2003+",
"icon":"mame2003_plus.png",
"iconsel":"",
"launch":"launch.sh",
"rompath":"../../Roms/ARCADE",
"imgpath":"../../Roms/ARCADE/Imgs",
"useswap":1,
"shortname":1,
"hidebios":1,
"extlist":"zip"
}