{
"label":"GBA",
"icon":"ic-GBA.png",
"iconsel":"",
"launch":"launch.sh",
"rompath":"../../Roms/GBA",
"imgpath":"../../Roms/GBA/Imgs",
"useswap":0,
"shortname":0,
"hidebios":0,
"extlist":"gba|agb|gbz|zip"
}
