{
"label":"SMS",
"icon":"ic-SMS.png",
"iconsel":"",
"launch":"launch.sh",
"rompath":"../../Roms/GG",
"imgpath":"../../Roms/GG/Imgs",
"useswap":0,
"shortname":0,
"hidebios":0,
"extlist":"sms|rom|gg|sg|zip"
}
