{
"label":"Shoot",
"icon":"./ic-FBNHACK.png",
"iconsel":"",
"launch":"launch.sh",
"rompath":"../../Roms/ARCADE/Shoot",
"imgpath":"../../Roms/ARCADE/Shoot/Imgs",
"gamelist":"../../Roms/ARCADE/Shoot/gamelist.xml",
"useswap":1,
"shortname":1,
"hidebios":1,
"extlist":"zip"
}