{
"label":"NGP",
"icon":"ic-NGP.png",
"iconsel":"",
"launch":"launch.sh",
"rompath":"../../Roms/NGP",
"imgpath":"../../Roms/NGP/Imgs",
"useswap":0,
"shortname":0,
"hidebios":0,
"extlist":"ngc|ngp|zip"
}
