{
"label":"开放平台 - EasyRPG",
"icon":"easyrpg.png",
"iconsel":"easyrpg_sel.png",
"launch":"launch.sh",
"rompath":"../../Roms/EASYRPG",
"imgpath":"../../Roms/EASYRPG/Imgs",
"useswap":0,
"shortname":0,
"hidebios":1,
"extlist":"ldb|zip"
}