{
"label":"NEOGEO",
"icon":"ic-neogeo.png",
"iconsel":"",
"launch":"launch.sh",
"rompath":"../../Roms/ARCADE",
"imgpath":"../../Roms/ARCADE/Imgs",
"gamelist":"../../Roms/ARCADE/NEOGEO/gamelist.xml",
"useswap":1,
"shortname":1,
"hidebios":1,
"extlist":"zip"
}
